{
  "locked": false,
  "version": -9998,
  "projectFileDependencyGroups": {
    "": [
      "NUnit >= 2.6.4"
    ],
    "DNX,Version=v4.5.1": [],
    "DNXCore,Version=v5.0": [
      "System.Console >= 4.0.0-beta-22816",
      "System.Collections >= 4.0.10-beta-22816",
      "System.Linq >= 4.0.0-beta-22816",
      "System.Threading >= 4.0.10-beta-22816",
      "Microsoft.CSharp >= 4.0.0-beta-22816"
    ]
  },
  "libraries": {
    "Microsoft.CSharp/4.0.0-beta-22816": {
      "serviceable": false,
      "sha": "FGnaYvmoVLd0QTnOyHfm+C79a9CGqQAoh76Ix9++a4SdeaAB8PgpB2Vi/Uc5jcp491QvPyPQjtXCuhRfqWvNkw==",
      "frameworks": {
        "DNX,Version=v4.5.1": {
          "dependencies": {
            "System.Dynamic.Runtime": "4.0.10-beta-22816",
            "System.Linq.Expressions": "4.0.10-beta-22816",
            "System.Runtime": "4.0.20-beta-22816"
          },
          "frameworkAssemblies": [],
          "runtimeAssemblies": [],
          "compileAssemblies": []
        },
        "DNXCore,Version=v5.0": {
          "dependencies": {
            "System.Dynamic.Runtime": "4.0.10-beta-22816",
            "System.Linq.Expressions": "4.0.10-beta-22816",
            "System.Runtime": "4.0.20-beta-22816"
          },
          "frameworkAssemblies": [],
          "runtimeAssemblies": [
            "lib/aspnetcore50/Microsoft.CSharp.dll"
          ],
          "compileAssemblies": [
            "lib/contract/Microsoft.CSharp.dll"
          ]
        }
      },
      "files": [
        "License.rtf",
        "Microsoft.CSharp.4.0.0-beta-22816.nupkg",
        "Microsoft.CSharp.4.0.0-beta-22816.nupkg.sha512",
        "Microsoft.CSharp.nuspec",
        "lib/aspnetcore50/Microsoft.CSharp.dll",
        "lib/contract/Microsoft.CSharp.dll",
        "lib/net45/_._",
        "lib/portable-wpa81+wp80+win80+net45+aspnetcore50/Microsoft.CSharp.dll"
      ]
    },
    "NUnit/2.6.4": {
      "serviceable": false,
      "sha": "cmSPvaCMRSP0DI19FP1Liw9DyJY3E/vOY1OrVaeJBZpZFWHkmT3fB9ngGWnZX/ftvA7zJEbghEaw3Yd+u4YFAw==",
      "frameworks": {
        "DNX,Version=v4.5.1": {
          "dependencies": {},
          "frameworkAssemblies": [],
          "runtimeAssemblies": [
            "lib/nunit.framework.dll"
          ],
          "compileAssemblies": [
            "lib/nunit.framework.dll"
          ]
        },
        "DNXCore,Version=v5.0": {
          "dependencies": {},
          "frameworkAssemblies": [],
          "runtimeAssemblies": [
            "lib/nunit.framework.dll"
          ],
          "compileAssemblies": [
            "lib/nunit.framework.dll"
          ]
        }
      },
      "files": [
        "license.txt",
        "NUnit.2.6.4.nupkg",
        "NUnit.2.6.4.nupkg.sha512",
        "NUnit.nuspec",
        "lib/nunit.framework.dll",
        "lib/nunit.framework.xml"
      ]
    },
    "System.Collections/4.0.10-beta-22816": {
      "serviceable": false,
      "sha": "tkVBx0CH/Xunk18S9LvNzPRqbXdIzsHbcGRtePrZCNZ9EUNuXK0dzzUl5q0KUgsQmeyUCDSw+7mwyG/pDGSpAA==",
      "frameworks": {
        "DNX,Version=v4.5.1": {
          "dependencies": {
            "System.Runtime": "4.0.20-beta-22816"
          },
          "frameworkAssemblies": [
            "mscorlib",
            "System",
            "System.Core"
          ],
          "runtimeAssemblies": [
            "lib/net45/System.Collections.dll"
          ],
          "compileAssemblies": [
            "lib/net45/System.Collections.dll"
          ]
        },
        "DNXCore,Version=v5.0": {
          "dependencies": {
            "System.Runtime": "4.0.20-beta-22816"
          },
          "frameworkAssemblies": [],
          "runtimeAssemblies": [
            "lib/aspnetcore50/System.Collections.dll"
          ],
          "compileAssemblies": [
            "lib/contract/System.Collections.dll"
          ]
        }
      },
      "files": [
        "License.rtf",
        "System.Collections.4.0.10-beta-22816.nupkg",
        "System.Collections.4.0.10-beta-22816.nupkg.sha512",
        "System.Collections.nuspec",
        "lib/aspnetcore50/System.Collections.dll",
        "lib/contract/System.Collections.dll",
        "lib/net45/System.Collections.dll",
        "lib/portable-wpa81+wp80+win80+net45+aspnetcore50/System.Collections.dll"
      ]
    },
    "System.Console/4.0.0-beta-22816": {
      "serviceable": false,
      "sha": "Nj6lappTB2mN/jfONYJ88FTG+vtPWa4/KHlkjukULmOrhoA0x5IfZrbCZJdyZ9lYoS0s1o3DOerwnlw8KSS5jQ==",
      "frameworks": {
        "DNX,Version=v4.5.1": {
          "dependencies": {
            "System.IO": "4.0.10-beta-22816",
            "System.Runtime": "4.0.20-beta-22816"
          },
          "frameworkAssemblies": [
            "mscorlib"
          ],
          "runtimeAssemblies": [
            "lib/net45/System.Console.dll"
          ],
          "compileAssemblies": [
            "lib/net45/System.Console.dll"
          ]
        },
        "DNXCore,Version=v5.0": {
          "dependencies": {
            "System.IO": "4.0.10-beta-22816",
            "System.Runtime": "4.0.20-beta-22816"
          },
          "frameworkAssemblies": [],
          "runtimeAssemblies": [
            "lib/aspnetcore50/System.Console.dll"
          ],
          "compileAssemblies": [
            "lib/contract/System.Console.dll"
          ]
        }
      },
      "files": [
        "License.rtf",
        "System.Console.4.0.0-beta-22816.nupkg",
        "System.Console.4.0.0-beta-22816.nupkg.sha512",
        "System.Console.nuspec",
        "lib/aspnetcore50/System.Console.dll",
        "lib/contract/System.Console.dll",
        "lib/net45/System.Console.dll",
        "lib/portable-wpa81+wp80+win80+net45+aspnetcore50/System.Console.dll"
      ]
    },
    "System.Dynamic.Runtime/4.0.10-beta-22816": {
      "serviceable": false,
      "sha": "xPMym5hsntfLf/Gisnvk3t25TaZRvwDF46PaszRlB63WsDbAIUXgrsE4ob8ZKTL7+uyGW1HGwOBVlJCP/J1/hA==",
      "frameworks": {
        "DNX,Version=v4.5.1": {
          "dependencies": {
            "System.Linq.Expressions": "4.0.10-beta-22816",
            "System.ObjectModel": "4.0.10-beta-22816",
            "System.Reflection": "4.0.10-beta-22816",
            "System.Runtime": "4.0.20-beta-22816"
          },
          "frameworkAssemblies": [
            "mscorlib",
            "System.Core"
          ],
          "runtimeAssemblies": [
            "lib/net45/System.Dynamic.Runtime.dll"
          ],
          "compileAssemblies": [
            "lib/net45/System.Dynamic.Runtime.dll"
          ]
        },
        "DNXCore,Version=v5.0": {
          "dependencies": {
            "System.Linq.Expressions": "4.0.10-beta-22816",
            "System.ObjectModel": "4.0.10-beta-22816",
            "System.Reflection": "4.0.10-beta-22816",
            "System.Runtime": "4.0.20-beta-22816"
          },
          "frameworkAssemblies": [],
          "runtimeAssemblies": [
            "lib/aspnetcore50/System.Dynamic.Runtime.dll"
          ],
          "compileAssemblies": [
            "lib/contract/System.Dynamic.Runtime.dll"
          ]
        }
      },
      "files": [
        "License.rtf",
        "System.Dynamic.Runtime.4.0.10-beta-22816.nupkg",
        "System.Dynamic.Runtime.4.0.10-beta-22816.nupkg.sha512",
        "System.Dynamic.Runtime.nuspec",
        "lib/aspnetcore50/System.Dynamic.Runtime.dll",
        "lib/contract/System.Dynamic.Runtime.dll",
        "lib/net45/System.Dynamic.Runtime.dll",
        "lib/portable-wpa81+wp80+win80+net45+aspnetcore50/System.Dynamic.Runtime.dll"
      ]
    },
    "System.IO/4.0.10-beta-22816": {
      "serviceable": false,
      "sha": "/wVhoi2uVXw5IZFU+JrPlyVgKrtMPtzQaYQ3DKUxH9nqiX64BChTFGNDcwZK3iNWTIWESxJhj9JR3lbqbG/PIg==",
      "frameworks": {
        "DNX,Version=v4.5.1": {
          "dependencies": {
            "System.Runtime": "4.0.20-beta-22816",
            "System.Text.Encoding": "4.0.10-beta-22816",
            "System.Threading.Tasks": "4.0.10-beta-22816"
          },
          "frameworkAssemblies": [
            "mscorlib",
            "System"
          ],
          "runtimeAssemblies": [
            "lib/net45/System.IO.dll"
          ],
          "compileAssemblies": [
            "lib/net45/System.IO.dll"
          ]
        },
        "DNXCore,Version=v5.0": {
          "dependencies": {
            "System.Runtime": "4.0.20-beta-22816",
            "System.Text.Encoding": "4.0.10-beta-22816",
            "System.Threading.Tasks": "4.0.10-beta-22816"
          },
          "frameworkAssemblies": [],
          "runtimeAssemblies": [
            "lib/aspnetcore50/System.IO.dll"
          ],
          "compileAssemblies": [
            "lib/contract/System.IO.dll"
          ]
        }
      },
      "files": [
        "License.rtf",
        "System.IO.4.0.10-beta-22816.nupkg",
        "System.IO.4.0.10-beta-22816.nupkg.sha512",
        "System.IO.nuspec",
        "lib/aspnetcore50/System.IO.dll",
        "lib/contract/System.IO.dll",
        "lib/net45/System.IO.dll",
        "lib/portable-wpa81+wp80+win80+net45+aspnetcore50/System.IO.dll"
      ]
    },
    "System.Linq/4.0.0-beta-22816": {
      "serviceable": false,
      "sha": "zBGJfF48L17zFzfs/B8KI1yQklPul0af4a1auQTyUxjdy/HzppkIfoRgrq3yqV+YIPWDkUxu9U9bwjOj90xLXw==",
      "frameworks": {
        "DNX,Version=v4.5.1": {
          "dependencies": {
            "System.Collections": "4.0.10-beta-22816",
            "System.Runtime": "4.0.20-beta-22816"
          },
          "frameworkAssemblies": [
            "mscorlib",
            "System.Core"
          ],
          "runtimeAssemblies": [
            "lib/net45/System.Linq.dll"
          ],
          "compileAssemblies": [
            "lib/net45/System.Linq.dll"
          ]
        },
        "DNXCore,Version=v5.0": {
          "dependencies": {
            "System.Collections": "4.0.10-beta-22816",
            "System.Runtime": "4.0.20-beta-22816"
          },
          "frameworkAssemblies": [],
          "runtimeAssemblies": [
            "lib/aspnetcore50/System.Linq.dll"
          ],
          "compileAssemblies": [
            "lib/contract/System.Linq.dll"
          ]
        }
      },
      "files": [
        "License.rtf",
        "System.Linq.4.0.0-beta-22816.nupkg",
        "System.Linq.4.0.0-beta-22816.nupkg.sha512",
        "System.Linq.nuspec",
        "lib/aspnetcore50/System.Linq.dll",
        "lib/contract/System.Linq.dll",
        "lib/net45/System.Linq.dll",
        "lib/portable-wpa81+wp80+win80+net45+aspnetcore50/System.Linq.dll"
      ]
    },
    "System.Linq.Expressions/4.0.10-beta-22816": {
      "serviceable": false,
      "sha": "qTu/alZVoEBZRIrbLzVlFSndQyhIEXY+qoBockbsUu98TDtd1N9gYiyg7FHeW7Qx1vDGfz1PWfUlYBd4G/ZHkg==",
      "frameworks": {
        "DNX,Version=v4.5.1": {
          "dependencies": {
            "System.Reflection": "4.0.10-beta-22816",
            "System.Runtime": "4.0.20-beta-22816"
          },
          "frameworkAssemblies": [
            "mscorlib",
            "System.Core"
          ],
          "runtimeAssemblies": [
            "lib/net45/System.Linq.Expressions.dll"
          ],
          "compileAssemblies": [
            "lib/net45/System.Linq.Expressions.dll"
          ]
        },
        "DNXCore,Version=v5.0": {
          "dependencies": {
            "System.Reflection": "4.0.10-beta-22816",
            "System.Runtime": "4.0.20-beta-22816"
          },
          "frameworkAssemblies": [],
          "runtimeAssemblies": [
            "lib/aspnetcore50/System.Linq.Expressions.dll"
          ],
          "compileAssemblies": [
            "lib/contract/System.Linq.Expressions.dll"
          ]
        }
      },
      "files": [
        "License.rtf",
        "System.Linq.Expressions.4.0.10-beta-22816.nupkg",
        "System.Linq.Expressions.4.0.10-beta-22816.nupkg.sha512",
        "System.Linq.Expressions.nuspec",
        "lib/aspnetcore50/System.Linq.Expressions.dll",
        "lib/contract/System.Linq.Expressions.dll",
        "lib/net45/System.Linq.Expressions.dll",
        "lib/portable-wpa81+wp80+win80+net45+aspnetcore50/System.Linq.Expressions.dll"
      ]
    },
    "System.ObjectModel/4.0.10-beta-22816": {
      "serviceable": false,
      "sha": "Rtu5FLq7JTtignXiSEKx26Q01NHyoO3pTcYYdwF54kFC64VbHEcvs8b586JyVVpM7Wz0zBmdgHDrH9fv2MgeVw==",
      "frameworks": {
        "DNX,Version=v4.5.1": {
          "dependencies": {
            "System.Runtime": "4.0.20-beta-22816"
          },
          "frameworkAssemblies": [
            "mscorlib",
            "System"
          ],
          "runtimeAssemblies": [
            "lib/net45/System.ObjectModel.dll"
          ],
          "compileAssemblies": [
            "lib/net45/System.ObjectModel.dll"
          ]
        },
        "DNXCore,Version=v5.0": {
          "dependencies": {
            "System.Runtime": "4.0.20-beta-22816"
          },
          "frameworkAssemblies": [],
          "runtimeAssemblies": [
            "lib/aspnetcore50/System.ObjectModel.dll"
          ],
          "compileAssemblies": [
            "lib/contract/System.ObjectModel.dll"
          ]
        }
      },
      "files": [
        "License.rtf",
        "System.ObjectModel.4.0.10-beta-22816.nupkg",
        "System.ObjectModel.4.0.10-beta-22816.nupkg.sha512",
        "System.ObjectModel.nuspec",
        "lib/aspnetcore50/System.ObjectModel.dll",
        "lib/contract/System.ObjectModel.dll",
        "lib/net45/System.ObjectModel.dll",
        "lib/portable-wpa81+wp80+win80+net45+aspnetcore50/System.ObjectModel.dll"
      ]
    },
    "System.Reflection/4.0.10-beta-22816": {
      "serviceable": false,
      "sha": "vdH/6euCyI/0el+6baAh/pttTZyWDh/PfL2TebSri3+FvNkjIEcE4httMn7J/5Lqz+NMDcLP7wOlY4Aa5EazNg==",
      "frameworks": {
        "DNX,Version=v4.5.1": {
          "dependencies": {
            "System.IO": "4.0.10-beta-22816",
            "System.Reflection.Primitives": "4.0.0-beta-22816",
            "System.Runtime": "4.0.20-beta-22816"
          },
          "frameworkAssemblies": [
            "mscorlib"
          ],
          "runtimeAssemblies": [
            "lib/net45/System.Reflection.dll"
          ],
          "compileAssemblies": [
            "lib/net45/System.Reflection.dll"
          ]
        },
        "DNXCore,Version=v5.0": {
          "dependencies": {
            "System.IO": "4.0.10-beta-22816",
            "System.Reflection.Primitives": "4.0.0-beta-22816",
            "System.Runtime": "4.0.20-beta-22816"
          },
          "frameworkAssemblies": [],
          "runtimeAssemblies": [
            "lib/aspnetcore50/System.Reflection.dll"
          ],
          "compileAssemblies": [
            "lib/contract/System.Reflection.dll"
          ]
        }
      },
      "files": [
        "License.rtf",
        "System.Reflection.4.0.10-beta-22816.nupkg",
        "System.Reflection.4.0.10-beta-22816.nupkg.sha512",
        "System.Reflection.nuspec",
        "lib/aspnetcore50/System.Reflection.dll",
        "lib/contract/System.Reflection.dll",
        "lib/net45/System.Reflection.dll",
        "lib/portable-wpa81+wp80+win80+net45+aspnetcore50/System.Reflection.dll"
      ]
    },
    "System.Reflection.Primitives/4.0.0-beta-22816": {
      "serviceable": false,
      "sha": "LXGxjPbmTit9COY1WKRG89Eya58UFVqebeNvGDCrX/c/72OP9XX00+wUUE34WFDioKeVBjofOySFdtKMVsDq1Q==",
      "frameworks": {
        "DNX,Version=v4.5.1": {
          "dependencies": {
            "System.Runtime": "4.0.20-beta-22816"
          },
          "frameworkAssemblies": [
            "mscorlib"
          ],
          "runtimeAssemblies": [
            "lib/net45/System.Reflection.Primitives.dll"
          ],
          "compileAssemblies": [
            "lib/net45/System.Reflection.Primitives.dll"
          ]
        },
        "DNXCore,Version=v5.0": {
          "dependencies": {
            "System.Runtime": "4.0.20-beta-22816"
          },
          "frameworkAssemblies": [],
          "runtimeAssemblies": [
            "lib/aspnetcore50/System.Reflection.Primitives.dll"
          ],
          "compileAssemblies": [
            "lib/contract/System.Reflection.Primitives.dll"
          ]
        }
      },
      "files": [
        "License.rtf",
        "System.Reflection.Primitives.4.0.0-beta-22816.nupkg",
        "System.Reflection.Primitives.4.0.0-beta-22816.nupkg.sha512",
        "System.Reflection.Primitives.nuspec",
        "lib/aspnetcore50/System.Reflection.Primitives.dll",
        "lib/contract/System.Reflection.Primitives.dll",
        "lib/net45/System.Reflection.Primitives.dll",
        "lib/portable-wpa81+wp80+win80+net45+aspnetcore50/System.Reflection.Primitives.dll"
      ]
    },
    "System.Runtime/4.0.20-beta-22816": {
      "serviceable": false,
      "sha": "sDSJEmM6Q5O7Nn9XxHTrsEJ4bv4hsBdeTWjuvyzd9/u9ujl9AWa3q1XFLrdPZetILPOC1P0+1LOCq4kZcsKF5Q==",
      "frameworks": {
        "DNX,Version=v4.5.1": {
          "dependencies": {},
          "frameworkAssemblies": [
            "mscorlib",
            "System",
            "System.ComponentModel.Composition",
            "System.Core"
          ],
          "runtimeAssemblies": [
            "lib/net45/System.Runtime.dll"
          ],
          "compileAssemblies": [
            "lib/net45/System.Runtime.dll"
          ]
        },
        "DNXCore,Version=v5.0": {
          "dependencies": {},
          "frameworkAssemblies": [],
          "runtimeAssemblies": [
            "lib/aspnetcore50/System.Runtime.dll"
          ],
          "compileAssemblies": [
            "lib/contract/System.Runtime.dll"
          ]
        }
      },
      "files": [
        "License.rtf",
        "System.Runtime.4.0.20-beta-22816.nupkg",
        "System.Runtime.4.0.20-beta-22816.nupkg.sha512",
        "System.Runtime.nuspec",
        "lib/aspnetcore50/System.Runtime.dll",
        "lib/contract/System.Runtime.dll",
        "lib/net45/System.Runtime.dll",
        "lib/portable-wpa81+wp80+win80+net45+aspnetcore50/System.Runtime.dll"
      ]
    },
    "System.Text.Encoding/4.0.10-beta-22816": {
      "serviceable": false,
      "sha": "QDKTAvat7aDGMWnVkGm6tJvvmc2zSTa/p8M4/OEBBkZKNx4SGkeGEjFUhl7b6AXZ220m4dACygkiAVoB/LqMHw==",
      "frameworks": {
        "DNX,Version=v4.5.1": {
          "dependencies": {
            "System.Runtime": "4.0.20-beta-22816"
          },
          "frameworkAssemblies": [
            "mscorlib"
          ],
          "runtimeAssemblies": [
            "lib/net45/System.Text.Encoding.dll"
          ],
          "compileAssemblies": [
            "lib/net45/System.Text.Encoding.dll"
          ]
        },
        "DNXCore,Version=v5.0": {
          "dependencies": {
            "System.Runtime": "4.0.20-beta-22816"
          },
          "frameworkAssemblies": [],
          "runtimeAssemblies": [
            "lib/aspnetcore50/System.Text.Encoding.dll"
          ],
          "compileAssemblies": [
            "lib/contract/System.Text.Encoding.dll"
          ]
        }
      },
      "files": [
        "License.rtf",
        "System.Text.Encoding.4.0.10-beta-22816.nupkg",
        "System.Text.Encoding.4.0.10-beta-22816.nupkg.sha512",
        "System.Text.Encoding.nuspec",
        "lib/aspnetcore50/System.Text.Encoding.dll",
        "lib/contract/System.Text.Encoding.dll",
        "lib/net45/System.Text.Encoding.dll",
        "lib/portable-wpa81+wp80+win80+net45+aspnetcore50/System.Text.Encoding.dll"
      ]
    },
    "System.Threading/4.0.10-beta-22816": {
      "serviceable": false,
      "sha": "tNAZqIJaAhnHpiEJdvGby7EFfirhD3aX+FF6vQBnHrk+bWVv4yAQ3k/skF7FBJIhMozenT41/1QVVwtTSR3HOQ==",
      "frameworks": {
        "DNX,Version=v4.5.1": {
          "dependencies": {
            "System.Runtime": "4.0.20-beta-22816",
            "System.Threading.Tasks": "4.0.10-beta-22816"
          },
          "frameworkAssemblies": [
            "mscorlib",
            "System",
            "System.Core"
          ],
          "runtimeAssemblies": [
            "lib/net45/System.Threading.dll"
          ],
          "compileAssemblies": [
            "lib/net45/System.Threading.dll"
          ]
        },
        "DNXCore,Version=v5.0": {
          "dependencies": {
            "System.Runtime": "4.0.20-beta-22816",
            "System.Threading.Tasks": "4.0.10-beta-22816"
          },
          "frameworkAssemblies": [],
          "runtimeAssemblies": [
            "lib/aspnetcore50/System.Threading.dll"
          ],
          "compileAssemblies": [
            "lib/contract/System.Threading.dll"
          ]
        }
      },
      "files": [
        "License.rtf",
        "System.Threading.4.0.10-beta-22816.nupkg",
        "System.Threading.4.0.10-beta-22816.nupkg.sha512",
        "System.Threading.nuspec",
        "lib/aspnetcore50/System.Threading.dll",
        "lib/contract/System.Threading.dll",
        "lib/net45/System.Threading.dll",
        "lib/portable-wpa81+wp80+win80+net45+aspnetcore50/System.Threading.dll"
      ]
    },
    "System.Threading.Tasks/4.0.10-beta-22816": {
      "serviceable": false,
      "sha": "e7TcoQuIPQ4bvkkCY2ulU8NFvj8XqYxsGpD3fAq1KajAlpx5j327Q13lKxlGPb7ouHQydKHCy5G1ZGuydb0DAA==",
      "frameworks": {
        "DNX,Version=v4.5.1": {
          "dependencies": {
            "System.Runtime": "4.0.20-beta-22816"
          },
          "frameworkAssemblies": [
            "mscorlib",
            "System.Core"
          ],
          "runtimeAssemblies": [
            "lib/net45/System.Threading.Tasks.dll"
          ],
          "compileAssemblies": [
            "lib/net45/System.Threading.Tasks.dll"
          ]
        },
        "DNXCore,Version=v5.0": {
          "dependencies": {
            "System.Runtime": "4.0.20-beta-22816"
          },
          "frameworkAssemblies": [],
          "runtimeAssemblies": [
            "lib/aspnetcore50/System.Threading.Tasks.dll"
          ],
          "compileAssemblies": [
            "lib/contract/System.Threading.Tasks.dll"
          ]
        }
      },
      "files": [
        "License.rtf",
        "System.Threading.Tasks.4.0.10-beta-22816.nupkg",
        "System.Threading.Tasks.4.0.10-beta-22816.nupkg.sha512",
        "System.Threading.Tasks.nuspec",
        "lib/aspnetcore50/System.Threading.Tasks.dll",
        "lib/contract/System.Threading.Tasks.dll",
        "lib/net45/System.Threading.Tasks.dll",
        "lib/portable-wpa81+wp80+win80+net45+aspnetcore50/System.Threading.Tasks.dll"
      ]
    }
  }
}