{
  "version": "1.0.0-*",
  "description": "regression Console Application",
  "authors": [ "" ],
  "tags": [ "" ],
  "projectUrl": "",
  "licenseUrl": "",

  "compilationOptions": {
    "emitEntryPoint": true
  },

  "tooling": {
    "defaultNamespace": "regression"
  },

  "dependencies": {
  },

  "commands": {
    "regression": "regression"
  },

  "frameworks": {
    "dnxcore50": {
      "dependencies": {
        "Microsoft.CSharp": "4.0.1-beta-23516",
        "System.Collections": "4.0.11-beta-23516",
        "System.Console": "4.0.0-beta-23516",
        "System.Linq": "4.0.1-beta-23516",
        "System.Threading": "4.0.11-beta-23516"
      }
    }
  }
}
